<?xml version="1.0" encoding="utf-8" standalone="no"?>
<!DOCTYPE svg PUBLIC "-//W3C//DTD SVG 1.1//EN"
  "http://www.w3.org/Graphics/SVG/1.1/DTD/svg11.dtd">
<!-- Created with matplotlib (http://matplotlib.org/) -->
<svg height="605pt" version="1.1" viewBox="0 0 822 605" width="822pt" xmlns="http://www.w3.org/2000/svg" xmlns:xlink="http://www.w3.org/1999/xlink">
 <defs>
  <style type="text/css">
*{stroke-linecap:butt;stroke-linejoin:round;}
  </style>
 </defs>
 <g id="figure_1">
  <g id="patch_1">
   <path d="M 0 605.072812 
L 822.737188 605.072812 
L 822.737188 0 
L 0 0 
z
" style="fill:#ffffff;"/>
  </g>
  <g id="axes_1">
   <g id="patch_2">
    <path d="M 65.537188 305.76 
L 735.137187 305.76 
L 735.137187 78.96 
L 65.537188 78.96 
z
" style="fill:#ffffff;"/>
   </g>
   <g id="patch_3">
    <path clip-path="url(#p807def8c36)" d="M 68.725759 305.76 
L 94.23433 305.76 
L 94.23433 109.51676 
L 68.725759 109.51676 
z
" style="fill:#414487;opacity:0.75;"/>
   </g>
   <g id="patch_4">
    <path clip-path="url(#p807def8c36)" d="M 68.725759 109.51676 
L 94.23433 109.51676 
L 94.23433 93.906498 
L 68.725759 93.906498 
z
" style="fill:#414487;"/>
   </g>
   <g id="patch_5">
    <path clip-path="url(#p807def8c36)" d="M 100.611473 305.76 
L 126.120045 305.76 
L 126.120045 109.51676 
L 100.611473 109.51676 
z
" style="fill:#23a983;opacity:0.75;"/>
   </g>
   <g id="patch_6">
    <path clip-path="url(#p807def8c36)" d="M 100.611473 109.51676 
L 126.120045 109.51676 
L 126.120045 89.76 
L 100.611473 89.76 
z
" style="fill:#23a983;"/>
   </g>
   <g id="patch_7">
    <path clip-path="url(#p807def8c36)" d="M 132.497187 305.76 
L 158.005759 305.76 
L 158.005759 207.887706 
L 132.497187 207.887706 
z
" style="fill:#7cd250;opacity:0.75;"/>
   </g>
   <g id="patch_8">
    <path clip-path="url(#p807def8c36)" d="M 132.497187 207.887706 
L 158.005759 207.887706 
L 158.005759 188.130946 
L 132.497187 188.130946 
z
" style="fill:#7cd250;"/>
   </g>
   <g id="patch_9">
    <path clip-path="url(#p807def8c36)" d="M 183.51433 305.76 
L 209.022902 305.76 
L 209.022902 170.982149 
L 183.51433 170.982149 
z
" style="fill:#414487;opacity:0.75;"/>
   </g>
   <g id="patch_10">
    <path clip-path="url(#p807def8c36)" d="M 183.51433 170.982149 
L 209.022902 170.982149 
L 209.022902 155.371887 
L 183.51433 155.371887 
z
" style="fill:#414487;"/>
   </g>
   <g id="patch_11">
    <path clip-path="url(#p807def8c36)" d="M 215.400045 305.76 
L 240.908616 305.76 
L 240.908616 170.982149 
L 215.400045 170.982149 
z
" style="fill:#23a983;opacity:0.75;"/>
   </g>
   <g id="patch_12">
    <path clip-path="url(#p807def8c36)" d="M 215.400045 170.982149 
L 240.908616 170.982149 
L 240.908616 151.225231 
L 215.400045 151.225231 
z
" style="fill:#23a983;"/>
   </g>
   <g id="patch_13">
    <path clip-path="url(#p807def8c36)" d="M 247.285759 305.76 
L 272.79433 305.76 
L 272.79433 203.02828 
L 247.285759 203.02828 
z
" style="fill:#7cd250;opacity:0.75;"/>
   </g>
   <g id="patch_14">
    <path clip-path="url(#p807def8c36)" d="M 247.285759 203.02828 
L 272.79433 203.02828 
L 272.79433 183.27152 
L 247.285759 183.27152 
z
" style="fill:#7cd250;"/>
   </g>
   <g id="patch_15">
    <path clip-path="url(#p807def8c36)" d="M 298.302902 305.76 
L 323.811473 305.76 
L 323.811473 200.240868 
L 298.302902 200.240868 
z
" style="fill:#414487;opacity:0.75;"/>
   </g>
   <g id="patch_16">
    <path clip-path="url(#p807def8c36)" d="M 298.302902 200.240868 
L 323.811473 200.240868 
L 323.811473 186.342999 
L 298.302902 186.342999 
z
" style="fill:#414487;"/>
   </g>
   <g id="patch_17">
    <path clip-path="url(#p807def8c36)" d="M 330.188616 305.76 
L 355.697187 305.76 
L 355.697187 200.240868 
L 330.188616 200.240868 
z
" style="fill:#23a983;opacity:0.75;"/>
   </g>
   <g id="patch_18">
    <path clip-path="url(#p807def8c36)" d="M 330.188616 200.240868 
L 355.697187 200.240868 
L 355.697187 185.081539 
L 330.188616 185.081539 
z
" style="fill:#23a983;"/>
   </g>
   <g id="patch_19">
    <path clip-path="url(#p807def8c36)" d="M 362.07433 305.76 
L 387.582902 305.76 
L 387.582902 234.905586 
L 362.07433 234.905586 
z
" style="fill:#7cd250;opacity:0.75;"/>
   </g>
   <g id="patch_20">
    <path clip-path="url(#p807def8c36)" d="M 362.07433 234.905586 
L 387.582902 234.905586 
L 387.582902 219.746257 
L 362.07433 219.746257 
z
" style="fill:#7cd250;"/>
   </g>
   <g id="patch_21">
    <path clip-path="url(#p807def8c36)" d="M 413.091473 305.76 
L 438.600045 305.76 
L 438.600045 256.40855 
L 413.091473 256.40855 
z
" style="fill:#414487;opacity:0.75;"/>
   </g>
   <g id="patch_22">
    <path clip-path="url(#p807def8c36)" d="M 413.091473 256.40855 
L 438.600045 256.40855 
L 438.600045 230.890619 
L 413.091473 230.890619 
z
" style="fill:#414487;"/>
   </g>
   <g id="patch_23">
    <path clip-path="url(#p807def8c36)" d="M 444.977187 305.76 
L 470.485759 305.76 
L 470.485759 256.40855 
L 444.977187 256.40855 
z
" style="fill:#23a983;opacity:0.75;"/>
   </g>
   <g id="patch_24">
    <path clip-path="url(#p807def8c36)" d="M 444.977187 256.40855 
L 470.485759 256.40855 
L 470.485759 236.65179 
L 444.977187 236.65179 
z
" style="fill:#23a983;"/>
   </g>
   <g id="patch_25">
    <path clip-path="url(#p807def8c36)" d="M 476.862902 305.76 
L 502.371473 305.76 
L 502.371473 260.330717 
L 476.862902 260.330717 
z
" style="fill:#7cd250;opacity:0.75;"/>
   </g>
   <g id="patch_26">
    <path clip-path="url(#p807def8c36)" d="M 476.862902 260.330717 
L 502.371473 260.330717 
L 502.371473 240.573957 
L 476.862902 240.573957 
z
" style="fill:#7cd250;"/>
   </g>
   <g id="patch_27">
    <path clip-path="url(#p807def8c36)" d="M 527.880045 305.76 
L 553.388616 305.76 
L 553.388616 253.145066 
L 527.880045 253.145066 
z
" style="fill:#414487;opacity:0.75;"/>
   </g>
   <g id="patch_28">
    <path clip-path="url(#p807def8c36)" d="M 527.880045 253.145066 
L 553.388616 253.145066 
L 553.388616 238.162002 
L 527.880045 238.162002 
z
" style="fill:#414487;"/>
   </g>
   <g id="patch_29">
    <path clip-path="url(#p807def8c36)" d="M 559.765759 305.76 
L 585.27433 305.76 
L 585.27433 253.145066 
L 559.765759 253.145066 
z
" style="fill:#23a983;opacity:0.75;"/>
   </g>
   <g id="patch_30">
    <path clip-path="url(#p807def8c36)" d="M 559.765759 253.145066 
L 585.27433 253.145066 
L 585.27433 233.388305 
L 559.765759 233.388305 
z
" style="fill:#23a983;"/>
   </g>
   <g id="patch_31">
    <path clip-path="url(#p807def8c36)" d="M 591.651473 305.76 
L 617.160045 305.76 
L 617.160045 262.040457 
L 591.651473 262.040457 
z
" style="fill:#7cd250;opacity:0.75;"/>
   </g>
   <g id="patch_32">
    <path clip-path="url(#p807def8c36)" d="M 591.651473 262.040457 
L 617.160045 262.040457 
L 617.160045 242.283697 
L 591.651473 242.283697 
z
" style="fill:#7cd250;"/>
   </g>
   <g id="patch_33">
    <path clip-path="url(#p807def8c36)" d="M 642.668616 305.76 
L 668.177187 305.76 
L 668.177187 266.002621 
L 642.668616 266.002621 
z
" style="fill:#414487;opacity:0.75;"/>
   </g>
   <g id="patch_34">
    <path clip-path="url(#p807def8c36)" d="M 642.668616 266.002621 
L 668.177187 266.002621 
L 668.177187 250.705958 
L 642.668616 250.705958 
z
" style="fill:#414487;"/>
   </g>
   <g id="patch_35">
    <path clip-path="url(#p807def8c36)" d="M 674.55433 305.76 
L 700.062902 305.76 
L 700.062902 266.002621 
L 674.55433 266.002621 
z
" style="fill:#23a983;opacity:0.75;"/>
   </g>
   <g id="patch_36">
    <path clip-path="url(#p807def8c36)" d="M 674.55433 266.002621 
L 700.062902 266.002621 
L 700.062902 246.245861 
L 674.55433 246.245861 
z
" style="fill:#23a983;"/>
   </g>
   <g id="patch_37">
    <path clip-path="url(#p807def8c36)" d="M 706.440045 305.76 
L 731.948616 305.76 
L 731.948616 268.997334 
L 706.440045 268.997334 
z
" style="fill:#7cd250;opacity:0.75;"/>
   </g>
   <g id="patch_38">
    <path clip-path="url(#p807def8c36)" d="M 706.440045 268.997334 
L 731.948616 268.997334 
L 731.948616 249.240574 
L 706.440045 249.240574 
z
" style="fill:#7cd250;"/>
   </g>
   <g id="matplotlib.axis_1">
    <g id="xtick_1"/>
    <g id="xtick_2"/>
    <g id="xtick_3"/>
    <g id="xtick_4"/>
    <g id="xtick_5"/>
    <g id="xtick_6"/>
   </g>
   <g id="matplotlib.axis_2">
    <g id="ytick_1">
     <g id="text_1">
      <!-- 0 -->
      <defs>
       <path d="M 31.78125 66.40625 
Q 24.171875 66.40625 20.328125 58.90625 
Q 16.5 51.421875 16.5 36.375 
Q 16.5 21.390625 20.328125 13.890625 
Q 24.171875 6.390625 31.78125 6.390625 
Q 39.453125 6.390625 43.28125 13.890625 
Q 47.125 21.390625 47.125 36.375 
Q 47.125 51.421875 43.28125 58.90625 
Q 39.453125 66.40625 31.78125 66.40625 
M 31.78125 74.21875 
Q 44.046875 74.21875 50.515625 64.515625 
Q 56.984375 54.828125 56.984375 36.375 
Q 56.984375 17.96875 50.515625 8.265625 
Q 44.046875 -1.421875 31.78125 -1.421875 
Q 19.53125 -1.421875 13.0625 8.265625 
Q 6.59375 17.96875 6.59375 36.375 
Q 6.59375 54.828125 13.0625 64.515625 
Q 19.53125 74.21875 31.78125 74.21875 
" id="DejaVuSans-30"/>
      </defs>
      <g style="fill:#262626;" transform="translate(51.220938 312.218672)scale(0.17 -0.17)">
       <use xlink:href="#DejaVuSans-30"/>
      </g>
     </g>
    </g>
    <g id="ytick_2">
     <g id="text_2">
      <!-- 200 -->
      <defs>
       <path d="M 19.1875 8.296875 
L 53.609375 8.296875 
L 53.609375 0 
L 7.328125 0 
L 7.328125 8.296875 
Q 12.9375 14.109375 22.625 23.890625 
Q 32.328125 33.6875 34.8125 36.53125 
Q 39.546875 41.84375 41.421875 45.53125 
Q 43.3125 49.21875 43.3125 52.78125 
Q 43.3125 58.59375 39.234375 62.25 
Q 35.15625 65.921875 28.609375 65.921875 
Q 23.96875 65.921875 18.8125 64.3125 
Q 13.671875 62.703125 7.8125 59.421875 
L 7.8125 69.390625 
Q 13.765625 71.78125 18.9375 73 
Q 24.125 74.21875 28.421875 74.21875 
Q 39.75 74.21875 46.484375 68.546875 
Q 53.21875 62.890625 53.21875 53.421875 
Q 53.21875 48.921875 51.53125 44.890625 
Q 49.859375 40.875 45.40625 35.40625 
Q 44.1875 33.984375 37.640625 27.21875 
Q 31.109375 20.453125 19.1875 8.296875 
" id="DejaVuSans-32"/>
      </defs>
      <g style="fill:#262626;" transform="translate(29.588438 246.452212)scale(0.17 -0.17)">
       <use xlink:href="#DejaVuSans-32"/>
       <use x="63.623047" xlink:href="#DejaVuSans-30"/>
       <use x="127.246094" xlink:href="#DejaVuSans-30"/>
      </g>
     </g>
    </g>
    <g id="ytick_3">
     <g id="text_3">
      <!-- 400 -->
      <defs>
       <path d="M 37.796875 64.3125 
L 12.890625 25.390625 
L 37.796875 25.390625 
z
M 35.203125 72.90625 
L 47.609375 72.90625 
L 47.609375 25.390625 
L 58.015625 25.390625 
L 58.015625 17.1875 
L 47.609375 17.1875 
L 47.609375 0 
L 37.796875 0 
L 37.796875 17.1875 
L 4.890625 17.1875 
L 4.890625 26.703125 
z
" id="DejaVuSans-34"/>
      </defs>
      <g style="fill:#262626;" transform="translate(29.588438 180.685751)scale(0.17 -0.17)">
       <use xlink:href="#DejaVuSans-34"/>
       <use x="63.623047" xlink:href="#DejaVuSans-30"/>
       <use x="127.246094" xlink:href="#DejaVuSans-30"/>
      </g>
     </g>
    </g>
    <g id="ytick_4">
     <g id="text_4">
      <!-- 600 -->
      <defs>
       <path d="M 33.015625 40.375 
Q 26.375 40.375 22.484375 35.828125 
Q 18.609375 31.296875 18.609375 23.390625 
Q 18.609375 15.53125 22.484375 10.953125 
Q 26.375 6.390625 33.015625 6.390625 
Q 39.65625 6.390625 43.53125 10.953125 
Q 47.40625 15.53125 47.40625 23.390625 
Q 47.40625 31.296875 43.53125 35.828125 
Q 39.65625 40.375 33.015625 40.375 
M 52.59375 71.296875 
L 52.59375 62.3125 
Q 48.875 64.0625 45.09375 64.984375 
Q 41.3125 65.921875 37.59375 65.921875 
Q 27.828125 65.921875 22.671875 59.328125 
Q 17.53125 52.734375 16.796875 39.40625 
Q 19.671875 43.65625 24.015625 45.921875 
Q 28.375 48.1875 33.59375 48.1875 
Q 44.578125 48.1875 50.953125 41.515625 
Q 57.328125 34.859375 57.328125 23.390625 
Q 57.328125 12.15625 50.6875 5.359375 
Q 44.046875 -1.421875 33.015625 -1.421875 
Q 20.359375 -1.421875 13.671875 8.265625 
Q 6.984375 17.96875 6.984375 36.375 
Q 6.984375 53.65625 15.1875 63.9375 
Q 23.390625 74.21875 37.203125 74.21875 
Q 40.921875 74.21875 44.703125 73.484375 
Q 48.484375 72.75 52.59375 71.296875 
" id="DejaVuSans-36"/>
      </defs>
      <g style="fill:#262626;" transform="translate(29.588438 114.919291)scale(0.17 -0.17)">
       <use xlink:href="#DejaVuSans-36"/>
       <use x="63.623047" xlink:href="#DejaVuSans-30"/>
       <use x="127.246094" xlink:href="#DejaVuSans-30"/>
      </g>
     </g>
    </g>
    <g id="text_5">
     <!-- MiB -->
     <defs>
      <path d="M 9.8125 72.90625 
L 24.515625 72.90625 
L 43.109375 23.296875 
L 61.8125 72.90625 
L 76.515625 72.90625 
L 76.515625 0 
L 66.890625 0 
L 66.890625 64.015625 
L 48.09375 14.015625 
L 38.1875 14.015625 
L 19.390625 64.015625 
L 19.390625 0 
L 9.8125 0 
z
" id="DejaVuSans-4d"/>
      <path d="M 9.421875 54.6875 
L 18.40625 54.6875 
L 18.40625 0 
L 9.421875 0 
z
M 9.421875 75.984375 
L 18.40625 75.984375 
L 18.40625 64.59375 
L 9.421875 64.59375 
z
" id="DejaVuSans-69"/>
      <path d="M 19.671875 34.8125 
L 19.671875 8.109375 
L 35.5 8.109375 
Q 43.453125 8.109375 47.28125 11.40625 
Q 51.125 14.703125 51.125 21.484375 
Q 51.125 28.328125 47.28125 31.5625 
Q 43.453125 34.8125 35.5 34.8125 
z
M 19.671875 64.796875 
L 19.671875 42.828125 
L 34.28125 42.828125 
Q 41.5 42.828125 45.03125 45.53125 
Q 48.578125 48.25 48.578125 53.8125 
Q 48.578125 59.328125 45.03125 62.0625 
Q 41.5 64.796875 34.28125 64.796875 
z
M 9.8125 72.90625 
L 35.015625 72.90625 
Q 46.296875 72.90625 52.390625 68.21875 
Q 58.5 63.53125 58.5 54.890625 
Q 58.5 48.1875 55.375 44.234375 
Q 52.25 40.28125 46.1875 39.3125 
Q 53.46875 37.75 57.5 32.78125 
Q 61.53125 27.828125 61.53125 20.40625 
Q 61.53125 10.640625 54.890625 5.3125 
Q 48.25 0 35.984375 0 
L 9.8125 0 
z
" id="DejaVuSans-42"/>
     </defs>
     <g transform="translate(21.637031 209.713828)rotate(-90)scale(0.19 -0.19)">
      <use xlink:href="#DejaVuSans-4d"/>
      <use x="86.279297" xlink:href="#DejaVuSans-69"/>
      <use x="114.0625" xlink:href="#DejaVuSans-42"/>
     </g>
    </g>
   </g>
   <g id="line2d_1">
    <path clip-path="url(#p807def8c36)" d="M 65.537188 239.99354 
L 735.137187 239.99354 
" style="fill:none;stroke:#ffffff;stroke-dasharray:2.2,2.2;stroke-dashoffset:0;stroke-width:0.5;"/>
   </g>
   <g id="line2d_2">
    <path clip-path="url(#p807def8c36)" d="M 65.537188 174.227079 
L 735.137187 174.227079 
" style="fill:none;stroke:#ffffff;stroke-dasharray:2.2,2.2;stroke-dashoffset:0;stroke-width:0.5;"/>
   </g>
   <g id="line2d_3">
    <path clip-path="url(#p807def8c36)" d="M 65.537188 108.460619 
L 735.137187 108.460619 
" style="fill:none;stroke:#ffffff;stroke-dasharray:2.2,2.2;stroke-dashoffset:0;stroke-width:0.5;"/>
   </g>
   <g id="line2d_4">
    <path clip-path="url(#p807def8c36)" d="M 65.537188 42.694159 
L 735.137187 42.694159 
" style="fill:none;stroke:#ffffff;stroke-dasharray:2.2,2.2;stroke-dashoffset:0;stroke-width:0.5;"/>
   </g>
   <g id="text_6">
    <!-- Sra -->
    <defs>
     <path d="M 53.515625 70.515625 
L 53.515625 60.890625 
Q 47.90625 63.578125 42.921875 64.890625 
Q 37.9375 66.21875 33.296875 66.21875 
Q 25.25 66.21875 20.875 63.09375 
Q 16.5 59.96875 16.5 54.203125 
Q 16.5 49.359375 19.40625 46.890625 
Q 22.3125 44.4375 30.421875 42.921875 
L 36.375 41.703125 
Q 47.40625 39.59375 52.65625 34.296875 
Q 57.90625 29 57.90625 20.125 
Q 57.90625 9.515625 50.796875 4.046875 
Q 43.703125 -1.421875 29.984375 -1.421875 
Q 24.8125 -1.421875 18.96875 -0.25 
Q 13.140625 0.921875 6.890625 3.21875 
L 6.890625 13.375 
Q 12.890625 10.015625 18.65625 8.296875 
Q 24.421875 6.59375 29.984375 6.59375 
Q 38.421875 6.59375 43.015625 9.90625 
Q 47.609375 13.234375 47.609375 19.390625 
Q 47.609375 24.75 44.3125 27.78125 
Q 41.015625 30.8125 33.5 32.328125 
L 27.484375 33.5 
Q 16.453125 35.6875 11.515625 40.375 
Q 6.59375 45.0625 6.59375 53.421875 
Q 6.59375 63.09375 13.40625 68.65625 
Q 20.21875 74.21875 32.171875 74.21875 
Q 37.3125 74.21875 42.625 73.28125 
Q 47.953125 72.359375 53.515625 70.515625 
" id="DejaVuSans-53"/>
     <path d="M 41.109375 46.296875 
Q 39.59375 47.171875 37.8125 47.578125 
Q 36.03125 48 33.890625 48 
Q 26.265625 48 22.1875 43.046875 
Q 18.109375 38.09375 18.109375 28.8125 
L 18.109375 0 
L 9.078125 0 
L 9.078125 54.6875 
L 18.109375 54.6875 
L 18.109375 46.1875 
Q 20.953125 51.171875 25.484375 53.578125 
Q 30.03125 56 36.53125 56 
Q 37.453125 56 38.578125 55.875 
Q 39.703125 55.765625 41.0625 55.515625 
z
" id="DejaVuSans-72"/>
     <path d="M 34.28125 27.484375 
Q 23.390625 27.484375 19.1875 25 
Q 14.984375 22.515625 14.984375 16.5 
Q 14.984375 11.71875 18.140625 8.90625 
Q 21.296875 6.109375 26.703125 6.109375 
Q 34.1875 6.109375 38.703125 11.40625 
Q 43.21875 16.703125 43.21875 25.484375 
L 43.21875 27.484375 
z
M 52.203125 31.203125 
L 52.203125 0 
L 43.21875 0 
L 43.21875 8.296875 
Q 40.140625 3.328125 35.546875 0.953125 
Q 30.953125 -1.421875 24.3125 -1.421875 
Q 15.921875 -1.421875 10.953125 3.296875 
Q 6 8.015625 6 15.921875 
Q 6 25.140625 12.171875 29.828125 
Q 18.359375 34.515625 30.609375 34.515625 
L 43.21875 34.515625 
L 43.21875 35.40625 
Q 43.21875 41.609375 39.140625 45 
Q 35.0625 48.390625 27.6875 48.390625 
Q 23 48.390625 18.546875 47.265625 
Q 14.109375 46.140625 10.015625 43.890625 
L 10.015625 52.203125 
Q 14.9375 54.109375 19.578125 55.046875 
Q 24.21875 56 28.609375 56 
Q 40.484375 56 46.34375 49.84375 
Q 52.203125 43.703125 52.203125 31.203125 
" id="DejaVuSans-61"/>
    </defs>
    <g transform="translate(375.455937 50.28)scale(0.3 -0.3)">
     <use xlink:href="#DejaVuSans-53"/>
     <use x="63.476562" xlink:href="#DejaVuSans-72"/>
     <use x="104.589844" xlink:href="#DejaVuSans-61"/>
    </g>
   </g>
  </g>
  <g id="axes_2">
   <g id="patch_39">
    <path d="M 65.537188 577.92 
L 735.137187 577.92 
L 735.137187 351.12 
L 65.537188 351.12 
z
" style="fill:#ffffff;"/>
   </g>
   <g id="PolyCollection_1">
    <path clip-path="url(#p81a74b2076)" d="M 127.71433 364.822503 
L 99.017188 364.822503 
L 99.017188 364.822503 
L 99.017188 364.822503 
L 99.017188 364.822503 
L 99.017188 364.822503 
L 99.017188 364.822503 
L 99.017188 364.822503 
L 99.017188 364.822503 
L 99.017188 364.822503 
L 99.017188 364.822503 
L 99.017188 364.822503 
L 99.017188 364.822503 
L 99.017188 364.822503 
L 99.017188 364.822503 
L 99.017188 364.822503 
L 99.017188 364.822503 
L 99.017188 364.822503 
L 99.017188 364.822503 
L 99.017188 364.822503 
L 99.017188 364.822503 
L 99.017188 364.822503 
L 99.017188 364.822503 
L 99.017188 364.822503 
L 99.017188 364.822503 
L 99.017188 364.822503 
L 99.017188 364.822503 
L 99.017188 364.822503 
L 99.017188 364.822503 
L 99.017188 364.822503 
L 99.017188 364.822503 
L 99.017188 364.822503 
L 99.017188 364.822503 
L 99.017188 364.822503 
L 99.017188 364.822503 
L 99.017188 364.822503 
L 99.017188 364.822503 
L 99.017188 364.822503 
L 99.017188 364.822503 
L 99.017188 364.822503 
L 99.017188 364.822503 
L 99.017188 364.822503 
L 99.017188 364.822503 
L 99.017188 364.822503 
L 99.017188 364.822503 
L 99.017188 364.822503 
L 99.017188 364.822503 
L 99.017188 364.822503 
L 99.017188 364.822503 
L 99.017188 364.822503 
L 99.017188 364.822503 
L 99.017188 364.822503 
L 99.017188 364.822503 
L 99.017188 364.822503 
L 99.017188 364.822503 
L 99.017188 364.822503 
L 99.017188 364.822503 
L 99.017188 364.822503 
L 99.017188 364.822503 
L 99.017188 364.822503 
L 99.017188 364.822503 
L 99.017188 364.822503 
L 99.017188 364.822503 
L 99.017188 364.822503 
L 99.017188 364.822503 
L 99.017188 364.822503 
L 99.017188 364.822503 
L 99.017188 364.822503 
L 99.017188 364.822503 
L 99.017188 364.822503 
L 99.017188 364.822503 
L 99.017188 364.822503 
L 99.017188 364.822503 
L 99.017188 364.822503 
L 99.017188 364.822503 
L 99.017188 364.822503 
L 99.017188 364.822503 
L 99.017188 364.822503 
L 99.017188 364.822503 
L 99.017188 364.822503 
L 99.017188 364.822503 
L 99.017188 364.822503 
L 99.017188 364.822503 
L 99.017188 364.822503 
L 99.017188 364.822503 
L 99.017188 364.822503 
L 99.017188 364.822503 
L 99.017188 364.822503 
L 99.017188 364.822503 
L 99.017188 364.822503 
L 99.017188 364.822503 
L 99.017188 364.822503 
L 99.017188 364.822503 
L 99.017188 364.822503 
L 99.017188 364.822503 
L 99.017188 364.822503 
L 99.017188 364.822503 
L 99.017188 364.822503 
L 99.017188 364.822503 
L 99.017188 364.822503 
L 99.017188 364.822503 
L 127.71433 364.822503 
L 127.71433 364.822503 
L 127.71433 364.822503 
L 127.71433 364.822503 
L 127.71433 364.822503 
L 127.71433 364.822503 
L 127.71433 364.822503 
L 127.71433 364.822503 
L 127.71433 364.822503 
L 127.71433 364.822503 
L 127.71433 364.822503 
L 127.71433 364.822503 
L 127.71433 364.822503 
L 127.71433 364.822503 
L 127.71433 364.822503 
L 127.71433 364.822503 
L 127.71433 364.822503 
L 127.71433 364.822503 
L 127.71433 364.822503 
L 127.71433 364.822503 
L 127.71433 364.822503 
L 127.71433 364.822503 
L 127.71433 364.822503 
L 127.71433 364.822503 
L 127.71433 364.822503 
L 127.71433 364.822503 
L 127.71433 364.822503 
L 127.71433 364.822503 
L 127.71433 364.822503 
L 127.71433 364.822503 
L 127.71433 364.822503 
L 127.71433 364.822503 
L 127.71433 364.822503 
L 127.71433 364.822503 
L 127.71433 364.822503 
L 127.71433 364.822503 
L 127.71433 364.822503 
L 127.71433 364.822503 
L 127.71433 364.822503 
L 127.71433 364.822503 
L 127.71433 364.822503 
L 127.71433 364.822503 
L 127.71433 364.822503 
L 127.71433 364.822503 
L 127.71433 364.822503 
L 127.71433 364.822503 
L 127.71433 364.822503 
L 127.71433 364.822503 
L 127.71433 364.822503 
L 127.71433 364.822503 
L 127.71433 364.822503 
L 127.71433 364.822503 
L 127.71433 364.822503 
L 127.71433 364.822503 
L 127.71433 364.822503 
L 127.71433 364.822503 
L 127.71433 364.822503 
L 127.71433 364.822503 
L 127.71433 364.822503 
L 127.71433 364.822503 
L 127.71433 364.822503 
L 127.71433 364.822503 
L 127.71433 364.822503 
L 127.71433 364.822503 
L 127.71433 364.822503 
L 127.71433 364.822503 
L 127.71433 364.822503 
L 127.71433 364.822503 
L 127.71433 364.822503 
L 127.71433 364.822503 
L 127.71433 364.822503 
L 127.71433 364.822503 
L 127.71433 364.822503 
L 127.71433 364.822503 
L 127.71433 364.822503 
L 127.71433 364.822503 
L 127.71433 364.822503 
L 127.71433 364.822503 
L 127.71433 364.822503 
L 127.71433 364.822503 
L 127.71433 364.822503 
L 127.71433 364.822503 
L 127.71433 364.822503 
L 127.71433 364.822503 
L 127.71433 364.822503 
L 127.71433 364.822503 
L 127.71433 364.822503 
L 127.71433 364.822503 
L 127.71433 364.822503 
L 127.71433 364.822503 
L 127.71433 364.822503 
L 127.71433 364.822503 
L 127.71433 364.822503 
L 127.71433 364.822503 
L 127.71433 364.822503 
L 127.71433 364.822503 
L 127.71433 364.822503 
L 127.71433 364.822503 
L 127.71433 364.822503 
L 127.71433 364.822503 
L 127.71433 364.822503 
z
" style="fill:#b0aaa7;"/>
   </g>
   <g id="PolyCollection_2">
    <path clip-path="url(#p81a74b2076)" d="M 242.502902 434.434352 
L 213.805759 434.434352 
L 213.805759 434.434352 
L 213.805759 434.434352 
L 213.805759 434.434352 
L 213.805759 434.434352 
L 213.805759 434.434352 
L 213.805759 434.434352 
L 213.805759 434.434352 
L 213.805759 434.434352 
L 213.805759 434.434352 
L 213.805759 434.434352 
L 213.805759 434.434352 
L 213.805759 434.434352 
L 213.805759 434.434352 
L 213.805759 434.434352 
L 213.805759 434.434352 
L 213.805759 434.434352 
L 213.805759 434.434352 
L 213.805759 434.434352 
L 213.805759 434.434352 
L 213.805759 434.434352 
L 213.805759 434.434352 
L 213.805759 434.434352 
L 213.805759 434.434352 
L 213.805759 434.434352 
L 213.805759 434.434352 
L 213.805759 434.434352 
L 213.805759 434.434352 
L 213.805759 434.434352 
L 213.805759 434.434352 
L 213.805759 434.434352 
L 213.805759 434.434352 
L 213.805759 434.434352 
L 213.805759 434.434352 
L 213.805759 434.434352 
L 213.805759 434.434352 
L 213.805759 434.434352 
L 213.805759 434.434352 
L 213.805759 434.434352 
L 213.805759 434.434352 
L 213.805759 434.434352 
L 213.805759 434.434352 
L 213.805759 434.434352 
L 213.805759 434.434352 
L 213.805759 434.434352 
L 213.805759 434.434352 
L 213.805759 434.434352 
L 213.805759 434.434352 
L 213.805759 434.434352 
L 213.805759 434.434352 
L 213.805759 434.434352 
L 213.805759 434.434352 
L 213.805759 434.434352 
L 213.805759 434.434352 
L 213.805759 434.434352 
L 213.805759 434.434352 
L 213.805759 434.434352 
L 213.805759 434.434352 
L 213.805759 434.434352 
L 213.805759 434.434352 
L 213.805759 434.434352 
L 213.805759 434.434352 
L 213.805759 434.434352 
L 213.805759 434.434352 
L 213.805759 434.434352 
L 213.805759 434.434352 
L 213.805759 434.434352 
L 213.805759 434.434352 
L 213.805759 434.434352 
L 213.805759 434.434352 
L 213.805759 434.434352 
L 213.805759 434.434352 
L 213.805759 434.434352 
L 213.805759 434.434352 
L 213.805759 434.434352 
L 213.805759 434.434352 
L 213.805759 434.434352 
L 213.805759 434.434352 
L 213.805759 434.434352 
L 213.805759 434.434352 
L 213.805759 434.434352 
L 213.805759 434.434352 
L 213.805759 434.434352 
L 213.805759 434.434352 
L 213.805759 434.434352 
L 213.805759 434.434352 
L 213.805759 434.434352 
L 213.805759 434.434352 
L 213.805759 434.434352 
L 213.805759 434.434352 
L 213.805759 434.434352 
L 213.805759 434.434352 
L 213.805759 434.434352 
L 213.805759 434.434352 
L 213.805759 434.434352 
L 213.805759 434.434352 
L 213.805759 434.434352 
L 213.805759 434.434352 
L 213.805759 434.434352 
L 213.805759 434.434352 
L 242.502902 434.434352 
L 242.502902 434.434352 
L 242.502902 434.434352 
L 242.502902 434.434352 
L 242.502902 434.434352 
L 242.502902 434.434352 
L 242.502902 434.434352 
L 242.502902 434.434352 
L 242.502902 434.434352 
L 242.502902 434.434352 
L 242.502902 434.434352 
L 242.502902 434.434352 
L 242.502902 434.434352 
L 242.502902 434.434352 
L 242.502902 434.434352 
L 242.502902 434.434352 
L 242.502902 434.434352 
L 242.502902 434.434352 
L 242.502902 434.434352 
L 242.502902 434.434352 
L 242.502902 434.434352 
L 242.502902 434.434352 
L 242.502902 434.434352 
L 242.502902 434.434352 
L 242.502902 434.434352 
L 242.502902 434.434352 
L 242.502902 434.434352 
L 242.502902 434.434352 
L 242.502902 434.434352 
L 242.502902 434.434352 
L 242.502902 434.434352 
L 242.502902 434.434352 
L 242.502902 434.434352 
L 242.502902 434.434352 
L 242.502902 434.434352 
L 242.502902 434.434352 
L 242.502902 434.434352 
L 242.502902 434.434352 
L 242.502902 434.434352 
L 242.502902 434.434352 
L 242.502902 434.434352 
L 242.502902 434.434352 
L 242.502902 434.434352 
L 242.502902 434.434352 
L 242.502902 434.434352 
L 242.502902 434.434352 
L 242.502902 434.434352 
L 242.502902 434.434352 
L 242.502902 434.434352 
L 242.502902 434.434352 
L 242.502902 434.434352 
L 242.502902 434.434352 
L 242.502902 434.434352 
L 242.502902 434.434352 
L 242.502902 434.434352 
L 242.502902 434.434352 
L 242.502902 434.434352 
L 242.502902 434.434352 
L 242.502902 434.434352 
L 242.502902 434.434352 
L 242.502902 434.434352 
L 242.502902 434.434352 
L 242.502902 434.434352 
L 242.502902 434.434352 
L 242.502902 434.434352 
L 242.502902 434.434352 
L 242.502902 434.434352 
L 242.502902 434.434352 
L 242.502902 434.434352 
L 242.502902 434.434352 
L 242.502902 434.434352 
L 242.502902 434.434352 
L 242.502902 434.434352 
L 242.502902 434.434352 
L 242.502902 434.434352 
L 242.502902 434.434352 
L 242.502902 434.434352 
L 242.502902 434.434352 
L 242.502902 434.434352 
L 242.502902 434.434352 
L 242.502902 434.434352 
L 242.502902 434.434352 
L 242.502902 434.434352 
L 242.502902 434.434352 
L 242.502902 434.434352 
L 242.502902 434.434352 
L 242.502902 434.434352 
L 242.502902 434.434352 
L 242.502902 434.434352 
L 242.502902 434.434352 
L 242.502902 434.434352 
L 242.502902 434.434352 
L 242.502902 434.434352 
L 242.502902 434.434352 
L 242.502902 434.434352 
L 242.502902 434.434352 
L 242.502902 434.434352 
L 242.502902 434.434352 
L 242.502902 434.434352 
L 242.502902 434.434352 
L 242.502902 434.434352 
z
" style="fill:#b0aaa7;"/>
   </g>
   <g id="PolyCollection_3">
    <path clip-path="url(#p81a74b2076)" d="M 356.519197 470.660926 
L 329.366606 470.660926 
L 329.978784 469.943426 
L 331.654616 469.225926 
L 333.980252 468.508426 
L 336.454045 467.790926 
L 338.659159 467.073426 
L 340.364196 466.355926 
L 341.527422 465.638426 
L 342.23442 464.920927 
L 342.619548 464.203427 
L 342.808331 463.485927 
L 342.891834 462.768427 
L 342.925231 462.050927 
L 342.937326 461.333427 
L 342.941298 460.615927 
L 342.942481 459.898427 
L 342.942801 459.180927 
L 342.94288 458.463427 
L 342.942897 457.745927 
L 342.942901 457.028427 
L 342.942902 456.310927 
L 342.942902 455.593427 
L 342.942902 454.875927 
L 342.942902 454.158427 
L 342.942902 453.440927 
L 342.942902 452.723427 
L 342.942902 452.005927 
L 342.942902 451.288427 
L 342.942902 450.570927 
L 342.942902 449.853427 
L 342.942902 449.135927 
L 342.942902 448.418427 
L 342.942902 447.700927 
L 342.942902 446.983427 
L 342.942902 446.265927 
L 342.942902 445.548427 
L 342.942902 444.830927 
L 342.942902 444.113427 
L 342.942902 443.395927 
L 342.942902 442.678427 
L 342.942902 441.960927 
L 342.942902 441.243427 
L 342.942902 440.525927 
L 342.942902 439.808427 
L 342.942902 439.090927 
L 342.942902 438.373427 
L 342.942902 437.655927 
L 342.942902 436.938427 
L 342.942902 436.220927 
L 342.942902 435.503427 
L 342.942902 434.785927 
L 342.942902 434.068427 
L 342.942902 433.350927 
L 342.942902 432.633427 
L 342.942902 431.915927 
L 342.942902 431.198427 
L 342.942902 430.480927 
L 342.942902 429.763427 
L 342.942902 429.045927 
L 342.942902 428.328427 
L 342.942902 427.610927 
L 342.942902 426.893427 
L 342.942902 426.175927 
L 342.942902 425.458427 
L 342.942902 424.740927 
L 342.942902 424.023427 
L 342.942902 423.305927 
L 342.942902 422.588427 
L 342.942902 421.870927 
L 342.942902 421.153427 
L 342.942902 420.435927 
L 342.942902 419.718427 
L 342.942902 419.000927 
L 342.942902 418.283427 
L 342.942902 417.565927 
L 342.942902 416.848427 
L 342.942902 416.130927 
L 342.942902 415.413427 
L 342.942902 414.695927 
L 342.942902 413.978427 
L 342.942901 413.260927 
L 342.942897 412.543427 
L 342.942879 411.825927 
L 342.942795 411.108427 
L 342.942457 410.390927 
L 342.941206 409.673427 
L 342.937009 408.955927 
L 342.924225 408.238427 
L 342.888929 407.520927 
L 342.800676 406.803427 
L 342.601155 406.085927 
L 342.194118 405.368427 
L 341.446904 404.650927 
L 340.217508 403.933427 
L 338.415483 403.215927 
L 336.084932 402.498427 
L 333.47042 401.780927 
L 331.012491 401.063427 
L 329.241331 400.345927 
L 328.59433 399.628427 
L 357.291473 399.628427 
L 357.291473 399.628427 
L 356.644472 400.345927 
L 354.873312 401.063427 
L 352.415384 401.780927 
L 349.800872 402.498427 
L 347.470321 403.215927 
L 345.668295 403.933427 
L 344.4389 404.650927 
L 343.691685 405.368427 
L 343.284649 406.085927 
L 343.085127 406.803427 
L 342.996874 407.520927 
L 342.961578 408.238427 
L 342.948795 408.955927 
L 342.944597 409.673427 
L 342.943347 410.390927 
L 342.943008 411.108427 
L 342.942925 411.825927 
L 342.942906 412.543427 
L 342.942903 413.260927 
L 342.942902 413.978427 
L 342.942902 414.695927 
L 342.942902 415.413427 
L 342.942902 416.130927 
L 342.942902 416.848427 
L 342.942902 417.565927 
L 342.942902 418.283427 
L 342.942902 419.000927 
L 342.942902 419.718427 
L 342.942902 420.435927 
L 342.942902 421.153427 
L 342.942902 421.870927 
L 342.942902 422.588427 
L 342.942902 423.305927 
L 342.942902 424.023427 
L 342.942902 424.740927 
L 342.942902 425.458427 
L 342.942902 426.175927 
L 342.942902 426.893427 
L 342.942902 427.610927 
L 342.942902 428.328427 
L 342.942902 429.045927 
L 342.942902 429.763427 
L 342.942902 430.480927 
L 342.942902 431.198427 
L 342.942902 431.915927 
L 342.942902 432.633427 
L 342.942902 433.350927 
L 342.942902 434.068427 
L 342.942902 434.785927 
L 342.942902 435.503427 
L 342.942902 436.220927 
L 342.942902 436.938427 
L 342.942902 437.655927 
L 342.942902 438.373427 
L 342.942902 439.090927 
L 342.942902 439.808427 
L 342.942902 440.525927 
L 342.942902 441.243427 
L 342.942902 441.960927 
L 342.942902 442.678427 
L 342.942902 443.395927 
L 342.942902 444.113427 
L 342.942902 444.830927 
L 342.942902 445.548427 
L 342.942902 446.265927 
L 342.942902 446.983427 
L 342.942902 447.700927 
L 342.942902 448.418427 
L 342.942902 449.135927 
L 342.942902 449.853427 
L 342.942902 450.570927 
L 342.942902 451.288427 
L 342.942902 452.005927 
L 342.942902 452.723427 
L 342.942902 453.440927 
L 342.942902 454.158427 
L 342.942902 454.875927 
L 342.942902 455.593427 
L 342.942902 456.310927 
L 342.942903 457.028427 
L 342.942906 457.745927 
L 342.942924 458.463427 
L 342.943002 459.180927 
L 342.943323 459.898427 
L 342.944506 460.615927 
L 342.948478 461.333427 
L 342.960573 462.050927 
L 342.993969 462.768427 
L 343.077472 463.485927 
L 343.266255 464.203427 
L 343.651384 464.920927 
L 344.358382 465.638426 
L 345.521608 466.355926 
L 347.226644 467.073426 
L 349.431759 467.790926 
L 351.905552 468.508426 
L 354.231188 469.225926 
L 355.90702 469.943426 
L 356.519197 470.660926 
z
" style="fill:#b0aaa7;"/>
   </g>
   <g id="PolyCollection_4">
    <path clip-path="url(#p81a74b2076)" d="M 472.080045 542.40375 
L 443.382902 542.40375 
L 443.382902 542.40375 
L 443.382902 542.40375 
L 443.382902 542.40375 
L 443.382902 542.40375 
L 443.382902 542.40375 
L 443.382902 542.40375 
L 443.382902 542.40375 
L 443.382902 542.40375 
L 443.382902 542.40375 
L 443.382902 542.40375 
L 443.382902 542.40375 
L 443.382902 542.40375 
L 443.382902 542.40375 
L 443.382902 542.40375 
L 443.382902 542.40375 
L 443.382902 542.40375 
L 443.382902 542.40375 
L 443.382902 542.40375 
L 443.382902 542.40375 
L 443.382902 542.40375 
L 443.382902 542.40375 
L 443.382902 542.40375 
L 443.382902 542.40375 
L 443.382902 542.40375 
L 443.382902 542.40375 
L 443.382902 542.40375 
L 443.382902 542.40375 
L 443.382902 542.40375 
L 443.382902 542.40375 
L 443.382902 542.40375 
L 443.382902 542.40375 
L 443.382902 542.40375 
L 443.382902 542.40375 
L 443.382902 542.40375 
L 443.382902 542.40375 
L 443.382902 542.40375 
L 443.382902 542.40375 
L 443.382902 542.40375 
L 443.382902 542.40375 
L 443.382902 542.40375 
L 443.382902 542.40375 
L 443.382902 542.40375 
L 443.382902 542.40375 
L 443.382902 542.40375 
L 443.382902 542.40375 
L 443.382902 542.40375 
L 443.382902 542.40375 
L 443.382902 542.40375 
L 443.382902 542.40375 
L 443.382902 542.40375 
L 443.382902 542.40375 
L 443.382902 542.40375 
L 443.382902 542.40375 
L 443.382902 542.40375 
L 443.382902 542.40375 
L 443.382902 542.40375 
L 443.382902 542.40375 
L 443.382902 542.40375 
L 443.382902 542.40375 
L 443.382902 542.40375 
L 443.382902 542.40375 
L 443.382902 542.40375 
L 443.382902 542.40375 
L 443.382902 542.40375 
L 443.382902 542.40375 
L 443.382902 542.40375 
L 443.382902 542.40375 
L 443.382902 542.40375 
L 443.382902 542.40375 
L 443.382902 542.40375 
L 443.382902 542.40375 
L 443.382902 542.40375 
L 443.382902 542.40375 
L 443.382902 542.40375 
L 443.382902 542.40375 
L 443.382902 542.40375 
L 443.382902 542.40375 
L 443.382902 542.40375 
L 443.382902 542.40375 
L 443.382902 542.40375 
L 443.382902 542.40375 
L 443.382902 542.40375 
L 443.382902 542.40375 
L 443.382902 542.40375 
L 443.382902 542.40375 
L 443.382902 542.40375 
L 443.382902 542.40375 
L 443.382902 542.40375 
L 443.382902 542.40375 
L 443.382902 542.40375 
L 443.382902 542.40375 
L 443.382902 542.40375 
L 443.382902 542.40375 
L 443.382902 542.40375 
L 443.382902 542.40375 
L 443.382902 542.40375 
L 443.382902 542.40375 
L 443.382902 542.40375 
L 443.382902 542.40375 
L 472.080045 542.40375 
L 472.080045 542.40375 
L 472.080045 542.40375 
L 472.080045 542.40375 
L 472.080045 542.40375 
L 472.080045 542.40375 
L 472.080045 542.40375 
L 472.080045 542.40375 
L 472.080045 542.40375 
L 472.080045 542.40375 
L 472.080045 542.40375 
L 472.080045 542.40375 
L 472.080045 542.40375 
L 472.080045 542.40375 
L 472.080045 542.40375 
L 472.080045 542.40375 
L 472.080045 542.40375 
L 472.080045 542.40375 
L 472.080045 542.40375 
L 472.080045 542.40375 
L 472.080045 542.40375 
L 472.080045 542.40375 
L 472.080045 542.40375 
L 472.080045 542.40375 
L 472.080045 542.40375 
L 472.080045 542.40375 
L 472.080045 542.40375 
L 472.080045 542.40375 
L 472.080045 542.40375 
L 472.080045 542.40375 
L 472.080045 542.40375 
L 472.080045 542.40375 
L 472.080045 542.40375 
L 472.080045 542.40375 
L 472.080045 542.40375 
L 472.080045 542.40375 
L 472.080045 542.40375 
L 472.080045 542.40375 
L 472.080045 542.40375 
L 472.080045 542.40375 
L 472.080045 542.40375 
L 472.080045 542.40375 
L 472.080045 542.40375 
L 472.080045 542.40375 
L 472.080045 542.40375 
L 472.080045 542.40375 
L 472.080045 542.40375 
L 472.080045 542.40375 
L 472.080045 542.40375 
L 472.080045 542.40375 
L 472.080045 542.40375 
L 472.080045 542.40375 
L 472.080045 542.40375 
L 472.080045 542.40375 
L 472.080045 542.40375 
L 472.080045 542.40375 
L 472.080045 542.40375 
L 472.080045 542.40375 
L 472.080045 542.40375 
L 472.080045 542.40375 
L 472.080045 542.40375 
L 472.080045 542.40375 
L 472.080045 542.40375 
L 472.080045 542.40375 
L 472.080045 542.40375 
L 472.080045 542.40375 
L 472.080045 542.40375 
L 472.080045 542.40375 
L 472.080045 542.40375 
L 472.080045 542.40375 
L 472.080045 542.40375 
L 472.080045 542.40375 
L 472.080045 542.40375 
L 472.080045 542.40375 
L 472.080045 542.40375 
L 472.080045 542.40375 
L 472.080045 542.40375 
L 472.080045 542.40375 
L 472.080045 542.40375 
L 472.080045 542.40375 
L 472.080045 542.40375 
L 472.080045 542.40375 
L 472.080045 542.40375 
L 472.080045 542.40375 
L 472.080045 542.40375 
L 472.080045 542.40375 
L 472.080045 542.40375 
L 472.080045 542.40375 
L 472.080045 542.40375 
L 472.080045 542.40375 
L 472.080045 542.40375 
L 472.080045 542.40375 
L 472.080045 542.40375 
L 472.080045 542.40375 
L 472.080045 542.40375 
L 472.080045 542.40375 
L 472.080045 542.40375 
L 472.080045 542.40375 
L 472.080045 542.40375 
L 472.080045 542.40375 
L 472.080045 542.40375 
z
" style="fill:#b0aaa7;"/>
   </g>
   <g id="PolyCollection_5">
    <path clip-path="url(#p81a74b2076)" d="M 586.868616 526.776601 
L 558.171473 526.776601 
L 558.171473 526.776601 
L 558.171473 526.776601 
L 558.171473 526.776601 
L 558.171473 526.776601 
L 558.171473 526.776601 
L 558.171473 526.776601 
L 558.171473 526.776601 
L 558.171473 526.776601 
L 558.171473 526.776601 
L 558.171473 526.776601 
L 558.171473 526.776601 
L 558.171473 526.776601 
L 558.171473 526.776601 
L 558.171473 526.776601 
L 558.171473 526.776601 
L 558.171473 526.776601 
L 558.171473 526.776601 
L 558.171473 526.776601 
L 558.171473 526.776601 
L 558.171473 526.776601 
L 558.171473 526.776601 
L 558.171473 526.776601 
L 558.171473 526.776601 
L 558.171473 526.776601 
L 558.171473 526.776601 
L 558.171473 526.776601 
L 558.171473 526.776601 
L 558.171473 526.776601 
L 558.171473 526.776601 
L 558.171473 526.776601 
L 558.171473 526.776601 
L 558.171473 526.776601 
L 558.171473 526.776601 
L 558.171473 526.776601 
L 558.171473 526.776601 
L 558.171473 526.776601 
L 558.171473 526.776601 
L 558.171473 526.776601 
L 558.171473 526.776601 
L 558.171473 526.776601 
L 558.171473 526.776601 
L 558.171473 526.776601 
L 558.171473 526.776601 
L 558.171473 526.776601 
L 558.171473 526.776601 
L 558.171473 526.776601 
L 558.171473 526.776601 
L 558.171473 526.776601 
L 558.171473 526.776601 
L 558.171473 526.776601 
L 558.171473 526.776601 
L 558.171473 526.776601 
L 558.171473 526.776601 
L 558.171473 526.776601 
L 558.171473 526.776601 
L 558.171473 526.776601 
L 558.171473 526.776601 
L 558.171473 526.776601 
L 558.171473 526.776601 
L 558.171473 526.776601 
L 558.171473 526.776601 
L 558.171473 526.776601 
L 558.171473 526.776601 
L 558.171473 526.776601 
L 558.171473 526.776601 
L 558.171473 526.776601 
L 558.171473 526.776601 
L 558.171473 526.776601 
L 558.171473 526.776601 
L 558.171473 526.776601 
L 558.171473 526.776601 
L 558.171473 526.776601 
L 558.171473 526.776601 
L 558.171473 526.776601 
L 558.171473 526.776601 
L 558.171473 526.776601 
L 558.171473 526.776601 
L 558.171473 526.776601 
L 558.171473 526.776601 
L 558.171473 526.776601 
L 558.171473 526.776601 
L 558.171473 526.776601 
L 558.171473 526.776601 
L 558.171473 526.776601 
L 558.171473 526.776601 
L 558.171473 526.776601 
L 558.171473 526.776601 
L 558.171473 526.776601 
L 558.171473 526.776601 
L 558.171473 526.776601 
L 558.171473 526.776601 
L 558.171473 526.776601 
L 558.171473 526.776601 
L 558.171473 526.776601 
L 558.171473 526.776601 
L 558.171473 526.776601 
L 558.171473 526.776601 
L 558.171473 526.776601 
L 558.171473 526.776601 
L 586.868616 526.776601 
L 586.868616 526.776601 
L 586.868616 526.776601 
L 586.868616 526.776601 
L 586.868616 526.776601 
L 586.868616 526.776601 
L 586.868616 526.776601 
L 586.868616 526.776601 
L 586.868616 526.776601 
L 586.868616 526.776601 
L 586.868616 526.776601 
L 586.868616 526.776601 
L 586.868616 526.776601 
L 586.868616 526.776601 
L 586.868616 526.776601 
L 586.868616 526.776601 
L 586.868616 526.776601 
L 586.868616 526.776601 
L 586.868616 526.776601 
L 586.868616 526.776601 
L 586.868616 526.776601 
L 586.868616 526.776601 
L 586.868616 526.776601 
L 586.868616 526.776601 
L 586.868616 526.776601 
L 586.868616 526.776601 
L 586.868616 526.776601 
L 586.868616 526.776601 
L 586.868616 526.776601 
L 586.868616 526.776601 
L 586.868616 526.776601 
L 586.868616 526.776601 
L 586.868616 526.776601 
L 586.868616 526.776601 
L 586.868616 526.776601 
L 586.868616 526.776601 
L 586.868616 526.776601 
L 586.868616 526.776601 
L 586.868616 526.776601 
L 586.868616 526.776601 
L 586.868616 526.776601 
L 586.868616 526.776601 
L 586.868616 526.776601 
L 586.868616 526.776601 
L 586.868616 526.776601 
L 586.868616 526.776601 
L 586.868616 526.776601 
L 586.868616 526.776601 
L 586.868616 526.776601 
L 586.868616 526.776601 
L 586.868616 526.776601 
L 586.868616 526.776601 
L 586.868616 526.776601 
L 586.868616 526.776601 
L 586.868616 526.776601 
L 586.868616 526.776601 
L 586.868616 526.776601 
L 586.868616 526.776601 
L 586.868616 526.776601 
L 586.868616 526.776601 
L 586.868616 526.776601 
L 586.868616 526.776601 
L 586.868616 526.776601 
L 586.868616 526.776601 
L 586.868616 526.776601 
L 586.868616 526.776601 
L 586.868616 526.776601 
L 586.868616 526.776601 
L 586.868616 526.776601 
L 586.868616 526.776601 
L 586.868616 526.776601 
L 586.868616 526.776601 
L 586.868616 526.776601 
L 586.868616 526.776601 
L 586.868616 526.776601 
L 586.868616 526.776601 
L 586.868616 526.776601 
L 586.868616 526.776601 
L 586.868616 526.776601 
L 586.868616 526.776601 
L 586.868616 526.776601 
L 586.868616 526.776601 
L 586.868616 526.776601 
L 586.868616 526.776601 
L 586.868616 526.776601 
L 586.868616 526.776601 
L 586.868616 526.776601 
L 586.868616 526.776601 
L 586.868616 526.776601 
L 586.868616 526.776601 
L 586.868616 526.776601 
L 586.868616 526.776601 
L 586.868616 526.776601 
L 586.868616 526.776601 
L 586.868616 526.776601 
L 586.868616 526.776601 
L 586.868616 526.776601 
L 586.868616 526.776601 
L 586.868616 526.776601 
L 586.868616 526.776601 
L 586.868616 526.776601 
z
" style="fill:#b0aaa7;"/>
   </g>
   <g id="PolyCollection_6">
    <path clip-path="url(#p81a74b2076)" d="M 701.657187 541.693425 
L 672.960045 541.693425 
L 672.960045 541.693425 
L 672.960045 541.693425 
L 672.960045 541.693425 
L 672.960045 541.693425 
L 672.960045 541.693425 
L 672.960045 541.693425 
L 672.960045 541.693425 
L 672.960045 541.693425 
L 672.960045 541.693425 
L 672.960045 541.693425 
L 672.960045 541.693425 
L 672.960045 541.693425 
L 672.960045 541.693425 
L 672.960045 541.693425 
L 672.960045 541.693425 
L 672.960045 541.693425 
L 672.960045 541.693425 
L 672.960045 541.693425 
L 672.960045 541.693425 
L 672.960045 541.693425 
L 672.960045 541.693425 
L 672.960045 541.693425 
L 672.960045 541.693425 
L 672.960045 541.693425 
L 672.960045 541.693425 
L 672.960045 541.693425 
L 672.960045 541.693425 
L 672.960045 541.693425 
L 672.960045 541.693425 
L 672.960045 541.693425 
L 672.960045 541.693425 
L 672.960045 541.693425 
L 672.960045 541.693425 
L 672.960045 541.693425 
L 672.960045 541.693425 
L 672.960045 541.693425 
L 672.960045 541.693425 
L 672.960045 541.693425 
L 672.960045 541.693425 
L 672.960045 541.693425 
L 672.960045 541.693425 
L 672.960045 541.693425 
L 672.960045 541.693425 
L 672.960045 541.693425 
L 672.960045 541.693425 
L 672.960045 541.693425 
L 672.960045 541.693425 
L 672.960045 541.693425 
L 672.960045 541.693425 
L 672.960045 541.693425 
L 672.960045 541.693425 
L 672.960045 541.693425 
L 672.960045 541.693425 
L 672.960045 541.693425 
L 672.960045 541.693425 
L 672.960045 541.693425 
L 672.960045 541.693425 
L 672.960045 541.693425 
L 672.960045 541.693425 
L 672.960045 541.693425 
L 672.960045 541.693425 
L 672.960045 541.693425 
L 672.960045 541.693425 
L 672.960045 541.693425 
L 672.960045 541.693425 
L 672.960045 541.693425 
L 672.960045 541.693425 
L 672.960045 541.693425 
L 672.960045 541.693425 
L 672.960045 541.693425 
L 672.960045 541.693425 
L 672.960045 541.693425 
L 672.960045 541.693425 
L 672.960045 541.693425 
L 672.960045 541.693425 
L 672.960045 541.693425 
L 672.960045 541.693425 
L 672.960045 541.693425 
L 672.960045 541.693425 
L 672.960045 541.693425 
L 672.960045 541.693425 
L 672.960045 541.693425 
L 672.960045 541.693425 
L 672.960045 541.693425 
L 672.960045 541.693425 
L 672.960045 541.693425 
L 672.960045 541.693425 
L 672.960045 541.693425 
L 672.960045 541.693425 
L 672.960045 541.693425 
L 672.960045 541.693425 
L 672.960045 541.693425 
L 672.960045 541.693425 
L 672.960045 541.693425 
L 672.960045 541.693425 
L 672.960045 541.693425 
L 672.960045 541.693425 
L 672.960045 541.693425 
L 672.960045 541.693425 
L 701.657187 541.693425 
L 701.657187 541.693425 
L 701.657187 541.693425 
L 701.657187 541.693425 
L 701.657187 541.693425 
L 701.657187 541.693425 
L 701.657187 541.693425 
L 701.657187 541.693425 
L 701.657187 541.693425 
L 701.657187 541.693425 
L 701.657187 541.693425 
L 701.657187 541.693425 
L 701.657187 541.693425 
L 701.657187 541.693425 
L 701.657187 541.693425 
L 701.657187 541.693425 
L 701.657187 541.693425 
L 701.657187 541.693425 
L 701.657187 541.693425 
L 701.657187 541.693425 
L 701.657187 541.693425 
L 701.657187 541.693425 
L 701.657187 541.693425 
L 701.657187 541.693425 
L 701.657187 541.693425 
L 701.657187 541.693425 
L 701.657187 541.693425 
L 701.657187 541.693425 
L 701.657187 541.693425 
L 701.657187 541.693425 
L 701.657187 541.693425 
L 701.657187 541.693425 
L 701.657187 541.693425 
L 701.657187 541.693425 
L 701.657187 541.693425 
L 701.657187 541.693425 
L 701.657187 541.693425 
L 701.657187 541.693425 
L 701.657187 541.693425 
L 701.657187 541.693425 
L 701.657187 541.693425 
L 701.657187 541.693425 
L 701.657187 541.693425 
L 701.657187 541.693425 
L 701.657187 541.693425 
L 701.657187 541.693425 
L 701.657187 541.693425 
L 701.657187 541.693425 
L 701.657187 541.693425 
L 701.657187 541.693425 
L 701.657187 541.693425 
L 701.657187 541.693425 
L 701.657187 541.693425 
L 701.657187 541.693425 
L 701.657187 541.693425 
L 701.657187 541.693425 
L 701.657187 541.693425 
L 701.657187 541.693425 
L 701.657187 541.693425 
L 701.657187 541.693425 
L 701.657187 541.693425 
L 701.657187 541.693425 
L 701.657187 541.693425 
L 701.657187 541.693425 
L 701.657187 541.693425 
L 701.657187 541.693425 
L 701.657187 541.693425 
L 701.657187 541.693425 
L 701.657187 541.693425 
L 701.657187 541.693425 
L 701.657187 541.693425 
L 701.657187 541.693425 
L 701.657187 541.693425 
L 701.657187 541.693425 
L 701.657187 541.693425 
L 701.657187 541.693425 
L 701.657187 541.693425 
L 701.657187 541.693425 
L 701.657187 541.693425 
L 701.657187 541.693425 
L 701.657187 541.693425 
L 701.657187 541.693425 
L 701.657187 541.693425 
L 701.657187 541.693425 
L 701.657187 541.693425 
L 701.657187 541.693425 
L 701.657187 541.693425 
L 701.657187 541.693425 
L 701.657187 541.693425 
L 701.657187 541.693425 
L 701.657187 541.693425 
L 701.657187 541.693425 
L 701.657187 541.693425 
L 701.657187 541.693425 
L 701.657187 541.693425 
L 701.657187 541.693425 
L 701.657187 541.693425 
L 701.657187 541.693425 
L 701.657187 541.693425 
L 701.657187 541.693425 
L 701.657187 541.693425 
z
" style="fill:#b0aaa7;"/>
   </g>
   <g id="LineCollection_1">
    <path clip-path="url(#p81a74b2076)" d="M 113.365759 364.822503 
L 113.365759 364.822503 
" style="fill:none;stroke:#b0aaa7;stroke-width:2;"/>
    <path clip-path="url(#p81a74b2076)" d="M 228.15433 434.434352 
L 228.15433 434.434352 
" style="fill:none;stroke:#b0aaa7;stroke-width:2;"/>
    <path clip-path="url(#p81a74b2076)" d="M 342.942902 470.660926 
L 342.942902 399.628427 
" style="fill:none;stroke:#b0aaa7;stroke-width:2;"/>
    <path clip-path="url(#p81a74b2076)" d="M 457.731473 542.40375 
L 457.731473 542.40375 
" style="fill:none;stroke:#b0aaa7;stroke-width:2;"/>
    <path clip-path="url(#p81a74b2076)" d="M 572.520045 526.776601 
L 572.520045 526.776601 
" style="fill:none;stroke:#b0aaa7;stroke-width:2;"/>
    <path clip-path="url(#p81a74b2076)" d="M 687.308616 541.693425 
L 687.308616 541.693425 
" style="fill:none;stroke:#b0aaa7;stroke-width:2;"/>
   </g>
   <g id="PathCollection_1">
    <defs>
     <path d="M -7.071068 0 
L 7.071068 0 
M 0 7.071068 
L 0 -7.071068 
" id="me98f8b8c48" style="stroke:#000000;stroke-width:2;"/>
    </defs>
    <g clip-path="url(#p81a74b2076)">
     <use style="stroke:#000000;stroke-width:2;" x="113.365759" xlink:href="#me98f8b8c48" y="364.822503"/>
     <use style="stroke:#000000;stroke-width:2;" x="228.15433" xlink:href="#me98f8b8c48" y="434.434352"/>
     <use style="stroke:#000000;stroke-width:2;" x="342.942902" xlink:href="#me98f8b8c48" y="399.628427"/>
     <use style="stroke:#000000;stroke-width:2;" x="457.731473" xlink:href="#me98f8b8c48" y="542.40375"/>
     <use style="stroke:#000000;stroke-width:2;" x="572.520045" xlink:href="#me98f8b8c48" y="526.776601"/>
     <use style="stroke:#000000;stroke-width:2;" x="687.308616" xlink:href="#me98f8b8c48" y="541.693425"/>
    </g>
   </g>
   <g id="matplotlib.axis_3">
    <g id="xtick_7">
     <g id="text_7">
      <!-- SRR5787977 -->
      <defs>
       <path d="M 44.390625 34.1875 
Q 47.5625 33.109375 50.5625 29.59375 
Q 53.5625 26.078125 56.59375 19.921875 
L 66.609375 0 
L 56 0 
L 46.6875 18.703125 
Q 43.0625 26.03125 39.671875 28.421875 
Q 36.28125 30.8125 30.421875 30.8125 
L 19.671875 30.8125 
L 19.671875 0 
L 9.8125 0 
L 9.8125 72.90625 
L 32.078125 72.90625 
Q 44.578125 72.90625 50.734375 67.671875 
Q 56.890625 62.453125 56.890625 51.90625 
Q 56.890625 45.015625 53.6875 40.46875 
Q 50.484375 35.9375 44.390625 34.1875 
M 19.671875 64.796875 
L 19.671875 38.921875 
L 32.078125 38.921875 
Q 39.203125 38.921875 42.84375 42.21875 
Q 46.484375 45.515625 46.484375 51.90625 
Q 46.484375 58.296875 42.84375 61.546875 
Q 39.203125 64.796875 32.078125 64.796875 
z
" id="DejaVuSans-52"/>
       <path d="M 10.796875 72.90625 
L 49.515625 72.90625 
L 49.515625 64.59375 
L 19.828125 64.59375 
L 19.828125 46.734375 
Q 21.96875 47.46875 24.109375 47.828125 
Q 26.265625 48.1875 28.421875 48.1875 
Q 40.625 48.1875 47.75 41.5 
Q 54.890625 34.8125 54.890625 23.390625 
Q 54.890625 11.625 47.5625 5.09375 
Q 40.234375 -1.421875 26.90625 -1.421875 
Q 22.3125 -1.421875 17.546875 -0.640625 
Q 12.796875 0.140625 7.71875 1.703125 
L 7.71875 11.625 
Q 12.109375 9.234375 16.796875 8.0625 
Q 21.484375 6.890625 26.703125 6.890625 
Q 35.15625 6.890625 40.078125 11.328125 
Q 45.015625 15.765625 45.015625 23.390625 
Q 45.015625 31 40.078125 35.4375 
Q 35.15625 39.890625 26.703125 39.890625 
Q 22.75 39.890625 18.8125 39.015625 
Q 14.890625 38.140625 10.796875 36.28125 
z
" id="DejaVuSans-35"/>
       <path d="M 8.203125 72.90625 
L 55.078125 72.90625 
L 55.078125 68.703125 
L 28.609375 0 
L 18.3125 0 
L 43.21875 64.59375 
L 8.203125 64.59375 
z
" id="DejaVuSans-37"/>
       <path d="M 31.78125 34.625 
Q 24.75 34.625 20.71875 30.859375 
Q 16.703125 27.09375 16.703125 20.515625 
Q 16.703125 13.921875 20.71875 10.15625 
Q 24.75 6.390625 31.78125 6.390625 
Q 38.8125 6.390625 42.859375 10.171875 
Q 46.921875 13.96875 46.921875 20.515625 
Q 46.921875 27.09375 42.890625 30.859375 
Q 38.875 34.625 31.78125 34.625 
M 21.921875 38.8125 
Q 15.578125 40.375 12.03125 44.71875 
Q 8.5 49.078125 8.5 55.328125 
Q 8.5 64.0625 14.71875 69.140625 
Q 20.953125 74.21875 31.78125 74.21875 
Q 42.671875 74.21875 48.875 69.140625 
Q 55.078125 64.0625 55.078125 55.328125 
Q 55.078125 49.078125 51.53125 44.71875 
Q 48 40.375 41.703125 38.8125 
Q 48.828125 37.15625 52.796875 32.3125 
Q 56.78125 27.484375 56.78125 20.515625 
Q 56.78125 9.90625 50.3125 4.234375 
Q 43.84375 -1.421875 31.78125 -1.421875 
Q 19.734375 -1.421875 13.25 4.234375 
Q 6.78125 9.90625 6.78125 20.515625 
Q 6.78125 27.484375 10.78125 32.3125 
Q 14.796875 37.15625 21.921875 38.8125 
M 18.3125 54.390625 
Q 18.3125 48.734375 21.84375 45.5625 
Q 25.390625 42.390625 31.78125 42.390625 
Q 38.140625 42.390625 41.71875 45.5625 
Q 45.3125 48.734375 45.3125 54.390625 
Q 45.3125 60.0625 41.71875 63.234375 
Q 38.140625 66.40625 31.78125 66.40625 
Q 25.390625 66.40625 21.84375 63.234375 
Q 18.3125 60.0625 18.3125 54.390625 
" id="DejaVuSans-38"/>
       <path d="M 10.984375 1.515625 
L 10.984375 10.5 
Q 14.703125 8.734375 18.5 7.8125 
Q 22.3125 6.890625 25.984375 6.890625 
Q 35.75 6.890625 40.890625 13.453125 
Q 46.046875 20.015625 46.78125 33.40625 
Q 43.953125 29.203125 39.59375 26.953125 
Q 35.25 24.703125 29.984375 24.703125 
Q 19.046875 24.703125 12.671875 31.3125 
Q 6.296875 37.9375 6.296875 49.421875 
Q 6.296875 60.640625 12.9375 67.421875 
Q 19.578125 74.21875 30.609375 74.21875 
Q 43.265625 74.21875 49.921875 64.515625 
Q 56.59375 54.828125 56.59375 36.375 
Q 56.59375 19.140625 48.40625 8.859375 
Q 40.234375 -1.421875 26.421875 -1.421875 
Q 22.703125 -1.421875 18.890625 -0.6875 
Q 15.09375 0.046875 10.984375 1.515625 
M 30.609375 32.421875 
Q 37.25 32.421875 41.125 36.953125 
Q 45.015625 41.5 45.015625 49.421875 
Q 45.015625 57.28125 41.125 61.84375 
Q 37.25 66.40625 30.609375 66.40625 
Q 23.96875 66.40625 20.09375 61.84375 
Q 16.21875 57.28125 16.21875 49.421875 
Q 16.21875 41.5 20.09375 36.953125 
Q 23.96875 32.421875 30.609375 32.421875 
" id="DejaVuSans-39"/>
      </defs>
      <g style="fill:#262626;" transform="translate(58.300368 594.337344)scale(0.17 -0.17)">
       <use xlink:href="#DejaVuSans-53"/>
       <use x="63.476562" xlink:href="#DejaVuSans-52"/>
       <use x="132.958984" xlink:href="#DejaVuSans-52"/>
       <use x="202.441406" xlink:href="#DejaVuSans-35"/>
       <use x="266.064453" xlink:href="#DejaVuSans-37"/>
       <use x="329.6875" xlink:href="#DejaVuSans-38"/>
       <use x="393.310547" xlink:href="#DejaVuSans-37"/>
       <use x="456.933594" xlink:href="#DejaVuSans-39"/>
       <use x="520.556641" xlink:href="#DejaVuSans-37"/>
       <use x="584.179688" xlink:href="#DejaVuSans-37"/>
      </g>
     </g>
    </g>
    <g id="xtick_8">
     <g id="text_8">
      <!-- SRR5710238 -->
      <defs>
       <path d="M 12.40625 8.296875 
L 28.515625 8.296875 
L 28.515625 63.921875 
L 10.984375 60.40625 
L 10.984375 69.390625 
L 28.421875 72.90625 
L 38.28125 72.90625 
L 38.28125 8.296875 
L 54.390625 8.296875 
L 54.390625 0 
L 12.40625 0 
z
" id="DejaVuSans-31"/>
       <path d="M 40.578125 39.3125 
Q 47.65625 37.796875 51.625 33 
Q 55.609375 28.21875 55.609375 21.1875 
Q 55.609375 10.40625 48.1875 4.484375 
Q 40.765625 -1.421875 27.09375 -1.421875 
Q 22.515625 -1.421875 17.65625 -0.515625 
Q 12.796875 0.390625 7.625 2.203125 
L 7.625 11.71875 
Q 11.71875 9.328125 16.59375 8.109375 
Q 21.484375 6.890625 26.8125 6.890625 
Q 36.078125 6.890625 40.9375 10.546875 
Q 45.796875 14.203125 45.796875 21.1875 
Q 45.796875 27.640625 41.28125 31.265625 
Q 36.765625 34.90625 28.71875 34.90625 
L 20.21875 34.90625 
L 20.21875 43.015625 
L 29.109375 43.015625 
Q 36.375 43.015625 40.234375 45.921875 
Q 44.09375 48.828125 44.09375 54.296875 
Q 44.09375 59.90625 40.109375 62.90625 
Q 36.140625 65.921875 28.71875 65.921875 
Q 24.65625 65.921875 20.015625 65.03125 
Q 15.375 64.15625 9.8125 62.3125 
L 9.8125 71.09375 
Q 15.4375 72.65625 20.34375 73.4375 
Q 25.25 74.21875 29.59375 74.21875 
Q 40.828125 74.21875 47.359375 69.109375 
Q 53.90625 64.015625 53.90625 55.328125 
Q 53.90625 49.265625 50.4375 45.09375 
Q 46.96875 40.921875 40.578125 39.3125 
" id="DejaVuSans-33"/>
      </defs>
      <g style="fill:#262626;" transform="translate(173.08894 594.337344)scale(0.17 -0.17)">
       <use xlink:href="#DejaVuSans-53"/>
       <use x="63.476562" xlink:href="#DejaVuSans-52"/>
       <use x="132.958984" xlink:href="#DejaVuSans-52"/>
       <use x="202.441406" xlink:href="#DejaVuSans-35"/>
       <use x="266.064453" xlink:href="#DejaVuSans-37"/>
       <use x="329.6875" xlink:href="#DejaVuSans-31"/>
       <use x="393.310547" xlink:href="#DejaVuSans-30"/>
       <use x="456.933594" xlink:href="#DejaVuSans-32"/>
       <use x="520.556641" xlink:href="#DejaVuSans-33"/>
       <use x="584.179688" xlink:href="#DejaVuSans-38"/>
      </g>
     </g>
    </g>
    <g id="xtick_9">
     <g id="text_9">
      <!-- ERR1662731 -->
      <defs>
       <path d="M 9.8125 72.90625 
L 55.90625 72.90625 
L 55.90625 64.59375 
L 19.671875 64.59375 
L 19.671875 43.015625 
L 54.390625 43.015625 
L 54.390625 34.71875 
L 19.671875 34.71875 
L 19.671875 8.296875 
L 56.78125 8.296875 
L 56.78125 0 
L 9.8125 0 
z
" id="DejaVuSans-45"/>
      </defs>
      <g style="fill:#262626;" transform="translate(287.902746 594.337344)scale(0.17 -0.17)">
       <use xlink:href="#DejaVuSans-45"/>
       <use x="63.183594" xlink:href="#DejaVuSans-52"/>
       <use x="132.666016" xlink:href="#DejaVuSans-52"/>
       <use x="202.148438" xlink:href="#DejaVuSans-31"/>
       <use x="265.771484" xlink:href="#DejaVuSans-36"/>
       <use x="329.394531" xlink:href="#DejaVuSans-36"/>
       <use x="393.017578" xlink:href="#DejaVuSans-32"/>
       <use x="456.640625" xlink:href="#DejaVuSans-37"/>
       <use x="520.263672" xlink:href="#DejaVuSans-33"/>
       <use x="583.886719" xlink:href="#DejaVuSans-31"/>
      </g>
     </g>
    </g>
    <g id="xtick_10">
     <g id="text_10">
      <!-- SRR5802898 -->
      <g style="fill:#262626;" transform="translate(402.666083 594.337344)scale(0.17 -0.17)">
       <use xlink:href="#DejaVuSans-53"/>
       <use x="63.476562" xlink:href="#DejaVuSans-52"/>
       <use x="132.958984" xlink:href="#DejaVuSans-52"/>
       <use x="202.441406" xlink:href="#DejaVuSans-35"/>
       <use x="266.064453" xlink:href="#DejaVuSans-38"/>
       <use x="329.6875" xlink:href="#DejaVuSans-30"/>
       <use x="393.310547" xlink:href="#DejaVuSans-32"/>
       <use x="456.933594" xlink:href="#DejaVuSans-38"/>
       <use x="520.556641" xlink:href="#DejaVuSans-39"/>
       <use x="584.179688" xlink:href="#DejaVuSans-38"/>
      </g>
     </g>
    </g>
    <g id="xtick_11">
     <g id="text_11">
      <!-- SRR390728 -->
      <g style="fill:#262626;" transform="translate(522.862779 594.337344)scale(0.17 -0.17)">
       <use xlink:href="#DejaVuSans-53"/>
       <use x="63.476562" xlink:href="#DejaVuSans-52"/>
       <use x="132.958984" xlink:href="#DejaVuSans-52"/>
       <use x="202.441406" xlink:href="#DejaVuSans-33"/>
       <use x="266.064453" xlink:href="#DejaVuSans-39"/>
       <use x="329.6875" xlink:href="#DejaVuSans-30"/>
       <use x="393.310547" xlink:href="#DejaVuSans-37"/>
       <use x="456.933594" xlink:href="#DejaVuSans-32"/>
       <use x="520.556641" xlink:href="#DejaVuSans-38"/>
      </g>
     </g>
    </g>
    <g id="xtick_12">
     <g id="text_12">
      <!-- ERR1988801 -->
      <g style="fill:#262626;" transform="translate(632.26846 594.337344)scale(0.17 -0.17)">
       <use xlink:href="#DejaVuSans-45"/>
       <use x="63.183594" xlink:href="#DejaVuSans-52"/>
       <use x="132.666016" xlink:href="#DejaVuSans-52"/>
       <use x="202.148438" xlink:href="#DejaVuSans-31"/>
       <use x="265.771484" xlink:href="#DejaVuSans-39"/>
       <use x="329.394531" xlink:href="#DejaVuSans-38"/>
       <use x="393.017578" xlink:href="#DejaVuSans-38"/>
       <use x="456.640625" xlink:href="#DejaVuSans-38"/>
       <use x="520.263672" xlink:href="#DejaVuSans-30"/>
       <use x="583.886719" xlink:href="#DejaVuSans-31"/>
      </g>
     </g>
    </g>
   </g>
   <g id="matplotlib.axis_4">
    <g id="ytick_5">
     <g id="text_13">
      <!-- 0 -->
      <g style="fill:#262626;" transform="translate(51.220938 584.378672)scale(0.17 -0.17)">
       <use xlink:href="#DejaVuSans-30"/>
      </g>
     </g>
    </g>
    <g id="ytick_6">
     <g id="text_14">
      <!-- 100 -->
      <g style="fill:#262626;" transform="translate(29.588438 513.346173)scale(0.17 -0.17)">
       <use xlink:href="#DejaVuSans-31"/>
       <use x="63.623047" xlink:href="#DejaVuSans-30"/>
       <use x="127.246094" xlink:href="#DejaVuSans-30"/>
      </g>
     </g>
    </g>
    <g id="ytick_7">
     <g id="text_15">
      <!-- 200 -->
      <g style="fill:#262626;" transform="translate(29.588438 442.313674)scale(0.17 -0.17)">
       <use xlink:href="#DejaVuSans-32"/>
       <use x="63.623047" xlink:href="#DejaVuSans-30"/>
       <use x="127.246094" xlink:href="#DejaVuSans-30"/>
      </g>
     </g>
    </g>
    <g id="ytick_8">
     <g id="text_16">
      <!-- 300 -->
      <g style="fill:#262626;" transform="translate(29.588438 371.281175)scale(0.17 -0.17)">
       <use xlink:href="#DejaVuSans-33"/>
       <use x="63.623047" xlink:href="#DejaVuSans-30"/>
       <use x="127.246094" xlink:href="#DejaVuSans-30"/>
      </g>
     </g>
    </g>
    <g id="text_17">
     <!-- bp -->
     <defs>
      <path d="M 48.6875 27.296875 
Q 48.6875 37.203125 44.609375 42.84375 
Q 40.53125 48.484375 33.40625 48.484375 
Q 26.265625 48.484375 22.1875 42.84375 
Q 18.109375 37.203125 18.109375 27.296875 
Q 18.109375 17.390625 22.1875 11.75 
Q 26.265625 6.109375 33.40625 6.109375 
Q 40.53125 6.109375 44.609375 11.75 
Q 48.6875 17.390625 48.6875 27.296875 
M 18.109375 46.390625 
Q 20.953125 51.265625 25.265625 53.625 
Q 29.59375 56 35.59375 56 
Q 45.5625 56 51.78125 48.09375 
Q 58.015625 40.1875 58.015625 27.296875 
Q 58.015625 14.40625 51.78125 6.484375 
Q 45.5625 -1.421875 35.59375 -1.421875 
Q 29.59375 -1.421875 25.265625 0.953125 
Q 20.953125 3.328125 18.109375 8.203125 
L 18.109375 0 
L 9.078125 0 
L 9.078125 75.984375 
L 18.109375 75.984375 
z
" id="DejaVuSans-62"/>
      <path d="M 18.109375 8.203125 
L 18.109375 -20.796875 
L 9.078125 -20.796875 
L 9.078125 54.6875 
L 18.109375 54.6875 
L 18.109375 46.390625 
Q 20.953125 51.265625 25.265625 53.625 
Q 29.59375 56 35.59375 56 
Q 45.5625 56 51.78125 48.09375 
Q 58.015625 40.1875 58.015625 27.296875 
Q 58.015625 14.40625 51.78125 6.484375 
Q 45.5625 -1.421875 35.59375 -1.421875 
Q 29.59375 -1.421875 25.265625 0.953125 
Q 20.953125 3.328125 18.109375 8.203125 
M 48.6875 27.296875 
Q 48.6875 37.203125 44.609375 42.84375 
Q 40.53125 48.484375 33.40625 48.484375 
Q 26.265625 48.484375 22.1875 42.84375 
Q 18.109375 37.203125 18.109375 27.296875 
Q 18.109375 17.390625 22.1875 11.75 
Q 26.265625 6.109375 33.40625 6.109375 
Q 40.53125 6.109375 44.609375 11.75 
Q 48.6875 17.390625 48.6875 27.296875 
" id="DejaVuSans-70"/>
     </defs>
     <g transform="translate(21.637031 476.582031)rotate(-90)scale(0.19 -0.19)">
      <use xlink:href="#DejaVuSans-62"/>
      <use x="63.476562" xlink:href="#DejaVuSans-70"/>
     </g>
    </g>
   </g>
   <g id="line2d_5">
    <path clip-path="url(#p81a74b2076)" d="M 65.537188 506.887501 
L 735.137187 506.887501 
" style="fill:none;stroke:#ffffff;stroke-dasharray:2.2,2.2;stroke-dashoffset:0;stroke-width:0.5;"/>
   </g>
   <g id="line2d_6">
    <path clip-path="url(#p81a74b2076)" d="M 65.537188 435.855002 
L 735.137187 435.855002 
" style="fill:none;stroke:#ffffff;stroke-dasharray:2.2,2.2;stroke-dashoffset:0;stroke-width:0.5;"/>
   </g>
   <g id="line2d_7">
    <path clip-path="url(#p81a74b2076)" d="M 65.537188 364.822503 
L 735.137187 364.822503 
" style="fill:none;stroke:#ffffff;stroke-dasharray:2.2,2.2;stroke-dashoffset:0;stroke-width:0.5;"/>
   </g>
   <g id="line2d_8">
    <path clip-path="url(#p81a74b2076)" d="M 65.537188 293.790004 
L 735.137187 293.790004 
" style="fill:none;stroke:#ffffff;stroke-dasharray:2.2,2.2;stroke-dashoffset:0;stroke-width:0.5;"/>
   </g>
  </g>
  <g id="legend_1">
   <g id="patch_40">
    <path d="M 690.229062 19.918125 
L 714.229062 19.918125 
L 714.229062 11.518125 
L 690.229062 11.518125 
z
" style="fill:#414487;"/>
   </g>
   <g id="text_18">
    <!-- fq -->
    <defs>
     <path d="M 37.109375 75.984375 
L 37.109375 68.5 
L 28.515625 68.5 
Q 23.6875 68.5 21.796875 66.546875 
Q 19.921875 64.59375 19.921875 59.515625 
L 19.921875 54.6875 
L 34.71875 54.6875 
L 34.71875 47.703125 
L 19.921875 47.703125 
L 19.921875 0 
L 10.890625 0 
L 10.890625 47.703125 
L 2.296875 47.703125 
L 2.296875 54.6875 
L 10.890625 54.6875 
L 10.890625 58.5 
Q 10.890625 67.625 15.140625 71.796875 
Q 19.390625 75.984375 28.609375 75.984375 
z
" id="DejaVuSans-66"/>
     <path d="M 14.796875 27.296875 
Q 14.796875 17.390625 18.875 11.75 
Q 22.953125 6.109375 30.078125 6.109375 
Q 37.203125 6.109375 41.296875 11.75 
Q 45.40625 17.390625 45.40625 27.296875 
Q 45.40625 37.203125 41.296875 42.84375 
Q 37.203125 48.484375 30.078125 48.484375 
Q 22.953125 48.484375 18.875 42.84375 
Q 14.796875 37.203125 14.796875 27.296875 
M 45.40625 8.203125 
Q 42.578125 3.328125 38.25 0.953125 
Q 33.9375 -1.421875 27.875 -1.421875 
Q 17.96875 -1.421875 11.734375 6.484375 
Q 5.515625 14.40625 5.515625 27.296875 
Q 5.515625 40.1875 11.734375 48.09375 
Q 17.96875 56 27.875 56 
Q 33.9375 56 38.25 53.625 
Q 42.578125 51.265625 45.40625 46.390625 
L 45.40625 54.6875 
L 54.390625 54.6875 
L 54.390625 -20.796875 
L 45.40625 -20.796875 
z
" id="DejaVuSans-71"/>
    </defs>
    <g transform="translate(723.829062 19.918125)scale(0.12 -0.12)">
     <use xlink:href="#DejaVuSans-66"/>
     <use x="35.205078" xlink:href="#DejaVuSans-71"/>
    </g>
   </g>
   <g id="patch_41">
    <path d="M 690.229062 37.531875 
L 714.229062 37.531875 
L 714.229062 29.131875 
L 690.229062 29.131875 
z
" style="fill:#414487;opacity:0.75;"/>
   </g>
   <g id="text_19">
    <!-- fq data ratio -->
    <defs>
     <path id="DejaVuSans-20"/>
     <path d="M 45.40625 46.390625 
L 45.40625 75.984375 
L 54.390625 75.984375 
L 54.390625 0 
L 45.40625 0 
L 45.40625 8.203125 
Q 42.578125 3.328125 38.25 0.953125 
Q 33.9375 -1.421875 27.875 -1.421875 
Q 17.96875 -1.421875 11.734375 6.484375 
Q 5.515625 14.40625 5.515625 27.296875 
Q 5.515625 40.1875 11.734375 48.09375 
Q 17.96875 56 27.875 56 
Q 33.9375 56 38.25 53.625 
Q 42.578125 51.265625 45.40625 46.390625 
M 14.796875 27.296875 
Q 14.796875 17.390625 18.875 11.75 
Q 22.953125 6.109375 30.078125 6.109375 
Q 37.203125 6.109375 41.296875 11.75 
Q 45.40625 17.390625 45.40625 27.296875 
Q 45.40625 37.203125 41.296875 42.84375 
Q 37.203125 48.484375 30.078125 48.484375 
Q 22.953125 48.484375 18.875 42.84375 
Q 14.796875 37.203125 14.796875 27.296875 
" id="DejaVuSans-64"/>
     <path d="M 18.3125 70.21875 
L 18.3125 54.6875 
L 36.8125 54.6875 
L 36.8125 47.703125 
L 18.3125 47.703125 
L 18.3125 18.015625 
Q 18.3125 11.328125 20.140625 9.421875 
Q 21.96875 7.515625 27.59375 7.515625 
L 36.8125 7.515625 
L 36.8125 0 
L 27.59375 0 
Q 17.1875 0 13.234375 3.875 
Q 9.28125 7.765625 9.28125 18.015625 
L 9.28125 47.703125 
L 2.6875 47.703125 
L 2.6875 54.6875 
L 9.28125 54.6875 
L 9.28125 70.21875 
z
" id="DejaVuSans-74"/>
     <path d="M 30.609375 48.390625 
Q 23.390625 48.390625 19.1875 42.75 
Q 14.984375 37.109375 14.984375 27.296875 
Q 14.984375 17.484375 19.15625 11.84375 
Q 23.34375 6.203125 30.609375 6.203125 
Q 37.796875 6.203125 41.984375 11.859375 
Q 46.1875 17.53125 46.1875 27.296875 
Q 46.1875 37.015625 41.984375 42.703125 
Q 37.796875 48.390625 30.609375 48.390625 
M 30.609375 56 
Q 42.328125 56 49.015625 48.375 
Q 55.71875 40.765625 55.71875 27.296875 
Q 55.71875 13.875 49.015625 6.21875 
Q 42.328125 -1.421875 30.609375 -1.421875 
Q 18.84375 -1.421875 12.171875 6.21875 
Q 5.515625 13.875 5.515625 27.296875 
Q 5.515625 40.765625 12.171875 48.375 
Q 18.84375 56 30.609375 56 
" id="DejaVuSans-6f"/>
    </defs>
    <g transform="translate(723.829062 37.531875)scale(0.12 -0.12)">
     <use xlink:href="#DejaVuSans-66"/>
     <use x="35.205078" xlink:href="#DejaVuSans-71"/>
     <use x="98.681641" xlink:href="#DejaVuSans-20"/>
     <use x="130.46875" xlink:href="#DejaVuSans-64"/>
     <use x="193.945312" xlink:href="#DejaVuSans-61"/>
     <use x="255.224609" xlink:href="#DejaVuSans-74"/>
     <use x="294.433594" xlink:href="#DejaVuSans-61"/>
     <use x="355.712891" xlink:href="#DejaVuSans-20"/>
     <use x="387.5" xlink:href="#DejaVuSans-72"/>
     <use x="428.613281" xlink:href="#DejaVuSans-61"/>
     <use x="489.892578" xlink:href="#DejaVuSans-74"/>
     <use x="529.101562" xlink:href="#DejaVuSans-69"/>
     <use x="556.884766" xlink:href="#DejaVuSans-6f"/>
    </g>
   </g>
   <g id="patch_42">
    <path d="M 690.229062 55.145625 
L 714.229062 55.145625 
L 714.229062 46.745625 
L 690.229062 46.745625 
z
" style="fill:#23a983;"/>
   </g>
   <g id="text_20">
    <!-- bof -->
    <g transform="translate(723.829062 55.145625)scale(0.12 -0.12)">
     <use xlink:href="#DejaVuSans-62"/>
     <use x="63.476562" xlink:href="#DejaVuSans-6f"/>
     <use x="124.658203" xlink:href="#DejaVuSans-66"/>
    </g>
   </g>
   <g id="patch_43">
    <path d="M 690.229062 72.759375 
L 714.229062 72.759375 
L 714.229062 64.359375 
L 690.229062 64.359375 
z
" style="fill:#23a983;opacity:0.75;"/>
   </g>
   <g id="text_21">
    <!-- bof data ratio -->
    <g transform="translate(723.829062 72.759375)scale(0.12 -0.12)">
     <use xlink:href="#DejaVuSans-62"/>
     <use x="63.476562" xlink:href="#DejaVuSans-6f"/>
     <use x="124.658203" xlink:href="#DejaVuSans-66"/>
     <use x="159.863281" xlink:href="#DejaVuSans-20"/>
     <use x="191.650391" xlink:href="#DejaVuSans-64"/>
     <use x="255.126953" xlink:href="#DejaVuSans-61"/>
     <use x="316.40625" xlink:href="#DejaVuSans-74"/>
     <use x="355.615234" xlink:href="#DejaVuSans-61"/>
     <use x="416.894531" xlink:href="#DejaVuSans-20"/>
     <use x="448.681641" xlink:href="#DejaVuSans-72"/>
     <use x="489.794922" xlink:href="#DejaVuSans-61"/>
     <use x="551.074219" xlink:href="#DejaVuSans-74"/>
     <use x="590.283203" xlink:href="#DejaVuSans-69"/>
     <use x="618.066406" xlink:href="#DejaVuSans-6f"/>
    </g>
   </g>
   <g id="patch_44">
    <path d="M 690.229062 90.373125 
L 714.229062 90.373125 
L 714.229062 81.973125 
L 690.229062 81.973125 
z
" style="fill:#7cd250;"/>
   </g>
   <g id="text_22">
    <!-- cbof -->
    <defs>
     <path d="M 48.78125 52.59375 
L 48.78125 44.1875 
Q 44.96875 46.296875 41.140625 47.34375 
Q 37.3125 48.390625 33.40625 48.390625 
Q 24.65625 48.390625 19.8125 42.84375 
Q 14.984375 37.3125 14.984375 27.296875 
Q 14.984375 17.28125 19.8125 11.734375 
Q 24.65625 6.203125 33.40625 6.203125 
Q 37.3125 6.203125 41.140625 7.25 
Q 44.96875 8.296875 48.78125 10.40625 
L 48.78125 2.09375 
Q 45.015625 0.34375 40.984375 -0.53125 
Q 36.96875 -1.421875 32.421875 -1.421875 
Q 20.0625 -1.421875 12.78125 6.34375 
Q 5.515625 14.109375 5.515625 27.296875 
Q 5.515625 40.671875 12.859375 48.328125 
Q 20.21875 56 33.015625 56 
Q 37.15625 56 41.109375 55.140625 
Q 45.0625 54.296875 48.78125 52.59375 
" id="DejaVuSans-63"/>
    </defs>
    <g transform="translate(723.829062 90.373125)scale(0.12 -0.12)">
     <use xlink:href="#DejaVuSans-63"/>
     <use x="54.980469" xlink:href="#DejaVuSans-62"/>
     <use x="118.457031" xlink:href="#DejaVuSans-6f"/>
     <use x="179.638672" xlink:href="#DejaVuSans-66"/>
    </g>
   </g>
   <g id="patch_45">
    <path d="M 690.229062 107.986875 
L 714.229062 107.986875 
L 714.229062 99.586875 
L 690.229062 99.586875 
z
" style="fill:#7cd250;opacity:0.75;"/>
   </g>
   <g id="text_23">
    <!-- cbof data ratio -->
    <g transform="translate(723.829062 107.986875)scale(0.12 -0.12)">
     <use xlink:href="#DejaVuSans-63"/>
     <use x="54.980469" xlink:href="#DejaVuSans-62"/>
     <use x="118.457031" xlink:href="#DejaVuSans-6f"/>
     <use x="179.638672" xlink:href="#DejaVuSans-66"/>
     <use x="214.84375" xlink:href="#DejaVuSans-20"/>
     <use x="246.630859" xlink:href="#DejaVuSans-64"/>
     <use x="310.107422" xlink:href="#DejaVuSans-61"/>
     <use x="371.386719" xlink:href="#DejaVuSans-74"/>
     <use x="410.595703" xlink:href="#DejaVuSans-61"/>
     <use x="471.875" xlink:href="#DejaVuSans-20"/>
     <use x="503.662109" xlink:href="#DejaVuSans-72"/>
     <use x="544.775391" xlink:href="#DejaVuSans-61"/>
     <use x="606.054688" xlink:href="#DejaVuSans-74"/>
     <use x="645.263672" xlink:href="#DejaVuSans-69"/>
     <use x="673.046875" xlink:href="#DejaVuSans-6f"/>
    </g>
   </g>
  </g>
 </g>
 <defs>
  <clipPath id="p807def8c36">
   <rect height="226.8" width="669.6" x="65.537188" y="78.96"/>
  </clipPath>
  <clipPath id="p81a74b2076">
   <rect height="226.8" width="669.6" x="65.537188" y="351.12"/>
  </clipPath>
 </defs>
</svg>
